^C:\USERS\BRUNO\DOCUMENTS\VISUAL STUDIO 2015\PROJECTS\CONSOLEAPPLICATIONTESTE\CONSOLEAPPLICATIONTESTE\CONSOLEAPPLICATIONTESTE.CPP
/c /ZI /nologo /W3 /WX- /sdl- /Od /Oy- /D _CRT_NONSTDC_NO_WARNINGS /D WIN32 /D _DEBUG /D _CONSOLE /D _UNICODE /D UNICODE /Gm /EHsc /RTC1 /MDd /GS /fp:precise /Zc:wchar_t /Zc:forScope /Zc:inline /Fo"DEBUG\\" /Fd"DEBUG\VC140.PDB" /Gd /TC /analyze- C:\USERS\BRUNO\DOCUMENTS\VISUAL STUDIO 2015\PROJECTS\CONSOLEAPPLICATIONTESTE\CONSOLEAPPLICATIONTESTE\CONSOLEAPPLICATIONTESTE.CPP
^C:\USERS\BRUNO\DOCUMENTS\VISUAL STUDIO 2015\PROJECTS\CONSOLEAPPLICATIONTESTE\CONSOLEAPPLICATIONTESTE\STDAFX.CPP
/c /ZI /nologo /W3 /WX- /sdl- /Od /Oy- /D _CRT_NONSTDC_NO_WARNINGS /D WIN32 /D _DEBUG /D _CONSOLE /D _UNICODE /D UNICODE /Gm /EHsc /RTC1 /MDd /GS /fp:precise /Zc:wchar_t /Zc:forScope /Zc:inline /Fo"DEBUG\\" /Fd"DEBUG\VC140.PDB" /Gd /TC /analyze- C:\USERS\BRUNO\DOCUMENTS\VISUAL STUDIO 2015\PROJECTS\CONSOLEAPPLICATIONTESTE\CONSOLEAPPLICATIONTESTE\STDAFX.CPP
^C:\WWW\CPU\CONSOLEAPPLICATIONTESTE\CONSOLEAPPLICATIONTESTE.CPP
/c /ZI /nologo /W3 /WX- /sdl- /Od /Oy- /D _CRT_NONSTDC_NO_WARNINGS /D WIN32 /D _DEBUG /D _CONSOLE /D _UNICODE /D UNICODE /Gm /EHsc /RTC1 /MDd /GS /fp:precise /Zc:wchar_t /Zc:forScope /Zc:inline /Fo"DEBUG\\" /Fd"DEBUG\VC140.PDB" /Gd /TC /analyze- C:\WWW\CPU\CONSOLEAPPLICATIONTESTE\CONSOLEAPPLICATIONTESTE.CPP
^C:\WWW\CPU\CONSOLEAPPLICATIONTESTE\STDAFX.CPP
/c /ZI /nologo /W3 /WX- /sdl- /Od /Oy- /D _CRT_NONSTDC_NO_WARNINGS /D WIN32 /D _DEBUG /D _CONSOLE /D _UNICODE /D UNICODE /Gm /EHsc /RTC1 /MDd /GS /fp:precise /Zc:wchar_t /Zc:forScope /Zc:inline /Fo"DEBUG\\" /Fd"DEBUG\VC140.PDB" /Gd /TC /analyze- C:\WWW\CPU\CONSOLEAPPLICATIONTESTE\STDAFX.CPP
